d41d8cd98f00b204e9800998ecf8427e  12345_000001_000001_WESTwist_IDT-B/200922_A00001_0001_BHNTGMDMXX_1_00001AM0001L01_1.fastq.count
ff8e9778919b20dd68feb85d98dd71c1  12345_000001_000001_WESTwist_IDT-B/200922_A00001_0001_BHNTGMDMXX_1_00001AM0001L01_1.fastq.gz
d41d8cd98f00b204e9800998ecf8427e  12345_000001_000001_WESTwist_IDT-B/200922_A00001_0001_BHNTGMDMXX_1_00001AM0001L01_2.fastq.count
c29c49cb98fa142d55f15593db614bb1  12345_000001_000001_WESTwist_IDT-B/200922_A00001_0001_BHNTGMDMXX_1_00001AM0001L01_2.fastq.gz
d41d8cd98f00b204e9800998ecf8427e  12345_000001_000001_WESTwist_IDT-B/200922_A00001_0001_BHNTGMDMXX_2_00001AM0001L01_1.fastq.count
a8be92b4125079047231d908878b629b  12345_000001_000001_WESTwist_IDT-B/200922_A00001_0001_BHNTGMDMXX_2_00001AM0001L01_1.fastq.gz
d41d8cd98f00b204e9800998ecf8427e  12345_000001_000001_WESTwist_IDT-B/200922_A00001_0001_BHNTGMDMXX_2_00001AM0001L01_2.fastq.count
fdfff34f486e4983ed7fcfb01a27b94b  12345_000001_000001_WESTwist_IDT-B/200922_A00001_0001_BHNTGMDMXX_2_00001AM0001L01_2.fastq.gz
d41d8cd98f00b204e9800998ecf8427e  12345_000002_000001_WESTwist_IDT-B/200922_A00001_0001_BHNTGMDMXX_3_00002AM0001L01_1.fastq.count
5ce6fd40ff99de36cc1349b10ed4e84d  12345_000002_000001_WESTwist_IDT-B/200922_A00001_0001_BHNTGMDMXX_3_00002AM0001L01_1.fastq.gz
d41d8cd98f00b204e9800998ecf8427e  12345_000002_000001_WESTwist_IDT-B/200922_A00001_0001_BHNTGMDMXX_3_00002AM0001L01_2.fastq.count
a61eaa2e396dd876331cbc7d80e0a97e  12345_000002_000001_WESTwist_IDT-B/200922_A00001_0001_BHNTGMDMXX_3_00002AM0001L01_2.fastq.gz
d41d8cd98f00b204e9800998ecf8427e  12345_000002_000001_WESTwist_IDT-B/200922_A00001_0001_BHNTGMDMXX_4_00002AM0001L01_1.fastq.count
cc18d33f52a274ca942e5ab6658eb2ea  12345_000002_000001_WESTwist_IDT-B/200922_A00001_0001_BHNTGMDMXX_4_00002AM0001L01_1.fastq.gz
d41d8cd98f00b204e9800998ecf8427e  12345_000002_000001_WESTwist_IDT-B/200922_A00001_0001_BHNTGMDMXX_4_00002AM0001L01_2.fastq.count
e194ff7dd2f6ccccb91924fe4ec5e42f  12345_000002_000001_WESTwist_IDT-B/200922_A00001_0001_BHNTGMDMXX_4_00002AM0001L01_2.fastq.gz
d41d8cd98f00b204e9800998ecf8427e  12345_000003_000001_WESTwist_IDT-B/200922_A00001_0001_BHNTGMDMXX_5_00003AM0001L01_1.fastq.count
df1a24a8a06148c630bc28e13e781afd  12345_000003_000001_WESTwist_IDT-B/200922_A00001_0001_BHNTGMDMXX_5_00003AM0001L01_1.fastq.gz
d41d8cd98f00b204e9800998ecf8427e  12345_000003_000001_WESTwist_IDT-B/200922_A00001_0001_BHNTGMDMXX_5_00003AM0001L01_2.fastq.count
698fe14b092b458d55999bb93e03e5b7  12345_000003_000001_WESTwist_IDT-B/200922_A00001_0001_BHNTGMDMXX_5_00003AM0001L01_2.fastq.gz
d41d8cd98f00b204e9800998ecf8427e  12345_000003_000001_WESTwist_IDT-B/200922_A00001_0001_BHNTGMDMXX_6_00003AM0001L01_1.fastq.count
57ca2fbf2e23d090db7b259263ab7745  12345_000003_000001_WESTwist_IDT-B/200922_A00001_0001_BHNTGMDMXX_6_00003AM0001L01_1.fastq.gz
d41d8cd98f00b204e9800998ecf8427e  12345_000003_000001_WESTwist_IDT-B/200922_A00001_0001_BHNTGMDMXX_6_00003AM0001L01_2.fastq.count
b5b39a73e5a795f95ec619d392beb396  12345_000003_000001_WESTwist_IDT-B/200922_A00001_0001_BHNTGMDMXX_6_00003AM0001L01_2.fastq.gz
d41d8cd98f00b204e9800998ecf8427e  12345_000004_000002_WESTwist_IDT-B/200922_A00001_0001_BHNTGMDMXX_7_00004AM0001L01_1.fastq.count
21b06127503d2ab8b177d68c9a91721d  12345_000004_000002_WESTwist_IDT-B/200922_A00001_0001_BHNTGMDMXX_7_00004AM0001L01_1.fastq.gz
d41d8cd98f00b204e9800998ecf8427e  12345_000004_000002_WESTwist_IDT-B/200922_A00001_0001_BHNTGMDMXX_7_00004AM0001L01_2.fastq.count
4392717bb3aa768a9eb0c04aef9c69bc  12345_000004_000002_WESTwist_IDT-B/200922_A00001_0001_BHNTGMDMXX_7_00004AM0001L01_2.fastq.gz
d41d8cd98f00b204e9800998ecf8427e  12345_000004_000002_WESTwist_IDT-B/200922_A00001_0001_BHNTGMDMXX_8_00004AM0001L01_1.fastq.count
9583a802f8adfe12b7231475af7ee0bd  12345_000004_000002_WESTwist_IDT-B/200922_A00001_0001_BHNTGMDMXX_8_00004AM0001L01_1.fastq.gz
d41d8cd98f00b204e9800998ecf8427e  12345_000004_000002_WESTwist_IDT-B/200922_A00001_0001_BHNTGMDMXX_8_00004AM0001L01_2.fastq.count
70cb93d77d74cd2c891987151a92f38a  12345_000004_000002_WESTwist_IDT-B/200922_A00001_0001_BHNTGMDMXX_8_00004AM0001L01_2.fastq.gz
d41d8cd98f00b204e9800998ecf8427e  12345_000005_000002_WESTwist_IDT-B/200923_A00001_0002_BRLSHNMKBX_1_00005AM0001L01_1.fastq.count
dc9b03bd11623d4849c51f2ca048a4fc  12345_000005_000002_WESTwist_IDT-B/200923_A00001_0002_BRLSHNMKBX_1_00005AM0001L01_1.fastq.gz
d41d8cd98f00b204e9800998ecf8427e  12345_000005_000002_WESTwist_IDT-B/200923_A00001_0002_BRLSHNMKBX_1_00005AM0001L01_2.fastq.count
df6f6f0def68997002213e94fedbe4c5  12345_000005_000002_WESTwist_IDT-B/200923_A00001_0002_BRLSHNMKBX_1_00005AM0001L01_2.fastq.gz
d41d8cd98f00b204e9800998ecf8427e  12345_000005_000002_WESTwist_IDT-B/200923_A00001_0002_BRLSHNMKBX_2_00005AM0001L01_1.fastq.count
7ca1184e141e53014a8330aca0674315  12345_000005_000002_WESTwist_IDT-B/200923_A00001_0002_BRLSHNMKBX_2_00005AM0001L01_1.fastq.gz
d41d8cd98f00b204e9800998ecf8427e  12345_000005_000002_WESTwist_IDT-B/200923_A00001_0002_BRLSHNMKBX_2_00005AM0001L01_2.fastq.count
d7f2cafffa026c278b79faf113fc79e9  12345_000005_000002_WESTwist_IDT-B/200923_A00001_0002_BRLSHNMKBX_2_00005AM0001L01_2.fastq.gz
